\relax 
\providecommand\hyper@newdestlabel[2]{}
\catcode `:\active 
\catcode `;\active 
\catcode `!\active 
\catcode `?\active 
\providecommand\HyperFirstAtBeginDocument{\AtBeginDocument}
\HyperFirstAtBeginDocument{\ifx\hyper@anchor\@undefined
\global\let\oldcontentsline\contentsline
\gdef\contentsline#1#2#3#4{\oldcontentsline{#1}{#2}{#3}}
\global\let\oldnewlabel\newlabel
\gdef\newlabel#1#2{\newlabelxx{#1}#2}
\gdef\newlabelxx#1#2#3#4#5#6{\oldnewlabel{#1}{{#2}{#3}}}
\AtEndDocument{\ifx\hyper@anchor\@undefined
\let\contentsline\oldcontentsline
\let\newlabel\oldnewlabel
\fi}
\fi}
\global\let\hyper@last\relax 
\gdef\HyperFirstAtBeginDocument#1{#1}
\providecommand\HyField@AuxAddToFields[1]{}
\providecommand\HyField@AuxAddToCoFields[2]{}
\providecommand\csxdef[2]{}
\@writefile{toc}{\providecommand\autonum@processReference[2]{}}
\@writefile{lof}{\providecommand\autonum@processReference[2]{}}
\babel@aux{french}{}
\@writefile{lof}{\ttl@tocsep }
\@writefile{lot}{\ttl@tocsep }
\@writefile{toc}{\contentsline {part}{I\hspace  {1em}Mod\IeC {\'e}lisation}{2}{part.1}}
\@writefile{toc}{\contentsline {section}{\numberline {1}Description du dispositif}{2}{section.1}}
\csxdef {autonum@firstfigReferenced}{}
\@writefile{lof}{\contentsline {figure}{\numberline {1}{\ignorespaces \textbf  {Sch\IeC {\'e}ma de principe du dispositif NXTway-GS.} Diff\IeC {\'e}rentes caract\IeC {\'e}ristiques g\IeC {\'e}om\IeC {\'e}triques sont repr\IeC {\'e}sent\IeC {\'e}es.}}{2}{figure.1}}
\newlabel{firstfig}{{1}{2}{\textbf {Schéma de principe du dispositif NXTway-GS.} Différentes caractéristiques géométriques sont représentées}{figure.1}{}}
\newlabel{firstfig@cref}{{[figure][1][]1}{[1][2][]2}}
\@writefile{lof}{\contentsline {figure}{\numberline {2}{\ignorespaces \textbf  {Projection de coupe et horizontale du robot.} Les positions des centres de masse du robot sont repr\IeC {\'e}sent\IeC {\'e}es en pointill\IeC {\'e}s. Le centre de masse du corps est indiqu\IeC {\'e} par la cible.}}{3}{figure.2}}
\newlabel{secondfig}{{2}{3}{\textbf {Projection de coupe et horizontale du robot.} Les positions des centres de masse du robot sont représentées en pointillés. Le centre de masse du corps est indiqué par la cible}{figure.2}{}}
\newlabel{secondfig@cref}{{[figure][2][]2}{[1][2][]3}}
\@writefile{toc}{\contentsline {subsection}{\numberline {1.1}Roues}{3}{subsection.1.1}}
\@writefile{toc}{\contentsline {subsection}{\numberline {1.2}Corps du robot}{3}{subsection.1.2}}
\@writefile{toc}{\contentsline {subsection}{\numberline {1.3}Moteur DC}{4}{subsection.1.3}}
\@writefile{toc}{\contentsline {subsection}{\numberline {1.4}Autres constantes}{4}{subsection.1.4}}
\@writefile{toc}{\contentsline {section}{\numberline {2}\IeC {\'E}quations du mouvement}{5}{section.2}}
\csxdef {autonum@secondfigReferenced}{}
\@writefile{toc}{\contentsline {subsection}{\numberline {2.1}\IeC {\'E}quations de Lagrange}{5}{subsection.2.1}}
\@writefile{toc}{\contentsline {subsection}{\numberline {2.2}Forces appliqu\IeC {\'e}es sur le syst\IeC {\`e}me}{6}{subsection.2.2}}
\@writefile{toc}{\contentsline {subsubsection}{\numberline {2.2.1}Force du moteur DC}{7}{subsubsection.2.2.1}}
\@writefile{toc}{\contentsline {subsection}{\numberline {2.3}Points fixes du syst\IeC {\`e}me}{7}{subsection.2.3}}
\@writefile{toc}{\contentsline {subsection}{\numberline {2.4}Lin\IeC {\'e}arisation}{7}{subsection.2.4}}
\newlabel{eqtang}{{1}{7}{Linéarisation}{equation.2.1}{}}
\newlabel{eqtang@cref}{{[equation][1][]1}{[1][7][]7}}
\newlabel{eqyaw}{{2}{7}{Linéarisation}{equation.2.2}{}}
\newlabel{eqyaw@cref}{{[equation][2][]2}{[1][7][]7}}
\csxdef {autonum@eqtangReferenced}{}
\@writefile{toc}{\contentsline {section}{\numberline {3}D\IeC {\'e}finition du syst\IeC {\`e}me $R$}{7}{section.3}}
\newlabel{eqtang}{{3}{7}{Définition du système $R$}{equation.3.3}{}}
\newlabel{eqtang@cref}{{[equation][3][]3}{[1][7][]7}}
\newlabel{eqyaw}{{4}{7}{Définition du système $R$}{equation.3.4}{}}
\newlabel{eqyaw@cref}{{[equation][4][]4}{[1][7][]7}}
\csxdef {autonum@eqyawReferenced}{}
\csxdef {autonum@eqyawReferenced}{}
\csxdef {autonum@eqtangReferenced}{}
\csxdef {autonum@eqyawReferenced}{}
\newlabel{eqsystem3}{{5}{8}{Définition du système $R$}{equation.3.5}{}}
\newlabel{eqsystem3@cref}{{[equation][5][]5}{[1][7][]8}}
\@writefile{toc}{\contentsline {subsection}{\numberline {3.1}R\IeC {\'e}duction de l'ordre du syst\IeC {\`e}me lin\IeC {\'e}aire d'\IeC {\'e}quations diff\IeC {\'e}rentielles}{8}{subsection.3.1}}
\csxdef {autonum@eqsystem3Referenced}{}
\@writefile{toc}{\contentsline {subsection}{\numberline {3.2}Choix de la matrice C}{9}{subsection.3.2}}
\@writefile{toc}{\contentsline {subsection}{\numberline {3.3}Deuxi\IeC {\`e}me m\IeC {\'e}thode de calcul pour A et B}{9}{subsection.3.3}}
\newlabel{EqEntreeNulle}{{6}{9}{Deuxième méthode de calcul pour A et B}{equation.3.6}{}}
\newlabel{EqEntreeNulle@cref}{{[equation][6][]6}{[1][9][]9}}
\csxdef {autonum@EqEntreeNulleReferenced}{}
\newlabel{Eq1EntreeNulle}{{7}{9}{Deuxième méthode de calcul pour A et B}{equation.3.7}{}}
\newlabel{Eq1EntreeNulle@cref}{{[equation][7][]7}{[1][9][]9}}
\newlabel{Eq2EntreeNulle}{{8}{9}{Deuxième méthode de calcul pour A et B}{equation.3.8}{}}
\newlabel{Eq2EntreeNulle@cref}{{[equation][8][]8}{[1][9][]9}}
\csxdef {autonum@Eq1EntreeNulleReferenced}{}
\csxdef {autonum@Eq2EntreeNulleReferenced}{}
\csxdef {autonum@Eq1EntreeNulleReferenced}{}
\csxdef {autonum@Eq2EntreeNulleReferenced}{}
\@writefile{toc}{\contentsline {section}{\numberline {4}Description externe}{10}{section.4}}
\@writefile{lof}{\ttl@tocsep }
\@writefile{lot}{\ttl@tocsep }
\@writefile{toc}{\contentsline {part}{II\hspace  {1em}Analyse}{11}{part.2}}
\csxdef {autonum@descriptionReferenced}{}
\@writefile{toc}{\contentsline {section}{\numberline {5}Analyse dynamique du mod\IeC {\`e}le}{11}{section.5}}
\@writefile{toc}{\contentsline {subsection}{\numberline {5.1}Stabilit\IeC {\'e} interne et externe}{11}{subsection.5.1}}
\@writefile{toc}{\contentsline {subsection}{\numberline {5.2}Contr\IeC {\^o}labilit\IeC {\'e}}{12}{subsection.5.2}}
\@writefile{toc}{\contentsline {subsection}{\numberline {5.3}Observabilit\IeC {\'e}}{12}{subsection.5.3}}
\@writefile{toc}{\contentsline {subsection}{\numberline {5.4}Stabilisabilit\IeC {\'e}}{12}{subsection.5.4}}
\@writefile{toc}{\contentsline {subsection}{\numberline {5.5}D\IeC {\'e}tectabilit\IeC {\'e}}{12}{subsection.5.5}}
\@writefile{toc}{\contentsline {section}{\numberline {6}Tests dynamiques en boucle ouverte}{13}{section.6}}
\@writefile{toc}{\contentsline {subsection}{\numberline {6.1}Trajectoires d'\IeC {\'e}tat libres}{13}{subsection.6.1}}
\@writefile{toc}{\contentsline {subsubsection}{\numberline {6.1.1}Trajectoires li\IeC {\'e}es au mode stable}{13}{subsubsection.6.1.1}}
\@writefile{lof}{\contentsline {figure}{\numberline {3}{\ignorespaces \textbf  {Trajectoire d'\IeC {\'e}tat libre correspondant \IeC {\`a} un mode stable}}}{13}{figure.3}}
\newlabel{firstfig}{{3}{13}{\textbf {Trajectoire d'état libre correspondant à un mode stable}}{figure.3}{}}
\newlabel{firstfig@cref}{{[figure][3][]3}{[1][13][]13}}
\@writefile{toc}{\contentsline {subsubsection}{\numberline {6.1.2}Trajectoires li\IeC {\'e}es au mode instable}{14}{subsubsection.6.1.2}}
\@writefile{lof}{\contentsline {figure}{\numberline {4}{\ignorespaces \textbf  {Trajectoire d'\IeC {\'e}tat libre correspondant \IeC {\`a} un mode instable}}}{14}{figure.4}}
\newlabel{firstfig}{{4}{14}{\textbf {Trajectoire d'état libre correspondant à un mode instable}}{figure.4}{}}
\newlabel{firstfig@cref}{{[figure][4][]4}{[1][14][]14}}
\@writefile{toc}{\contentsline {subsubsection}{\numberline {6.1.3}Trajectoires li\IeC {\'e}es au mode antistable}{15}{subsubsection.6.1.3}}
\@writefile{lof}{\contentsline {figure}{\numberline {5}{\ignorespaces \textbf  {Trajectoire d'\IeC {\'e}tat libre correspondant \IeC {\`a} un mode constant}}}{15}{figure.5}}
\newlabel{firstfig}{{5}{15}{\textbf {Trajectoire d'état libre correspondant à un mode constant}}{figure.5}{}}
\newlabel{firstfig@cref}{{[figure][5][]5}{[1][14][]15}}
\@writefile{toc}{\contentsline {section}{\numberline {7}R\IeC {\'e}ponse impulsionnelle}{15}{section.7}}
\@writefile{lof}{\contentsline {figure}{\numberline {6}{\ignorespaces \textbf  {R\IeC {\'e}ponse impusionnelle du syst\IeC {\`e}me NXTway-GS}}}{16}{figure.6}}
\newlabel{firstfig}{{6}{16}{\textbf {Réponse impusionnelle du système NXTway-GS}}{figure.6}{}}
\newlabel{firstfig@cref}{{[figure][6][]6}{[1][15][]16}}
\@writefile{toc}{\contentsline {section}{\numberline {8}R\IeC {\'e}ponse indicielle}{16}{section.8}}
\csxdef {autonum@indiceReferenced}{}
\@writefile{lof}{\contentsline {figure}{\numberline {7}{\ignorespaces \textbf  {Trajectoires d'\IeC {\'e}tats li\IeC {\'e}es \IeC {\`a} la r\IeC {\'e}ponse indicielle}}}{17}{figure.7}}
\newlabel{indice}{{7}{17}{\textbf {Trajectoires d'états liées à la réponse indicielle}}{figure.7}{}}
\newlabel{indice@cref}{{[figure][7][]7}{[1][16][]17}}
